@startuml

title __PROXY's Class Diagram__\n

  namespace fr.cnam.foad.nfa035.badges.fileutils.streaming.serializer {
    namespace impl {
      namespace db {
        namespace proxy {
          class fr.cnam.foad.nfa035.badges.fileutils.streaming.serializer.impl.db.proxy.Base64OutputStreamProxy {
              ~ bos : Base64OutputStream
              ~ wrapper : CloseShieldOutputStream
              + Base64OutputStreamProxy()
              + close()
              + flush()
              + write()
              + write()
              + write()
          }
        }
      }
    }
  }
  

  fr.cnam.foad.nfa035.badges.fileutils.streaming.serializer.impl.db.proxy.Base64OutputStreamProxy .up.|> java.io.Closeable
  fr.cnam.foad.nfa035.badges.fileutils.streaming.serializer.impl.db.proxy.Base64OutputStreamProxy .up.|> java.io.Flushable
  fr.cnam.foad.nfa035.badges.fileutils.streaming.serializer.impl.db.proxy.Base64OutputStreamProxy .up.|> java.lang.AutoCloseable
  fr.cnam.foad.nfa035.badges.fileutils.streaming.serializer.impl.db.proxy.Base64OutputStreamProxy -up-|> java.io.FilterOutputStream


right footer


PlantUML diagram generated by SketchIt! (https://bitbucket.org/pmesmeur/sketch.it)
For more information about this tool, please contact philippe.mesmeur@gmail.com
endfooter

@enduml
